<?xml version="1.0" encoding="utf-8"?>
<!-- Generator: Adobe Illustrator 22.0.1, SVG Export Plug-In . SVG Version: 6.00 Build 0)  -->
<svg version="1.1" id="Слой_1" xmlns="http://www.w3.org/2000/svg" xmlns:xlink="http://www.w3.org/1999/xlink" x="0px" y="0px"
	 width="41px" height="21px" viewBox="0 0 41 21" enable-background="new 0 0 41 21" xml:space="preserve">
<title>Artboard 1</title>
<path fill-rule="evenodd" clip-rule="evenodd" fill="#FFFFFF" d="M34.7,21c-0.1,0-0.1,0-0.2,0h-7c-0.3,0-0.5-0.2-0.5-0.5v-1
	c0-0.3,0.2-0.5,0.5-0.5H34v0c2.8,0,5-2.2,5-5c0-2.8-2.2-5-5-5H3.5l5.4,5.4c0.2,0.2,0,0.7-0.4,1.1c-0.4,0.4-0.9,0.6-1.1,0.4L0.5,9h0
	C0.2,9,0,8.8,0,8.5v-1C0,7.2,0.2,7,0.5,7h0l6.9-6.9c0.2-0.2,0.7,0,1.1,0.4c0.4,0.4,0.6,0.9,0.4,1.1L3.5,7h31c0.1,0,0.1,0,0.2,0
	c3.6,0.3,6.3,3.3,6.3,7S38.2,20.6,34.7,21z"/>
</svg>
