<?xml version="1.0" encoding="UTF-8"?>
<svg width="17px" height="25px" viewBox="0 0 17 25" version="1.1" xmlns="http://www.w3.org/2000/svg" xmlns:xlink="http://www.w3.org/1999/xlink">
    <!-- Generator: Sketch 51.3 (57544) - http://www.bohemiancoding.com/sketch -->
    <title>icon_download</title>
    <desc>Created with Sketch.</desc>
    <defs></defs>
    <g id="Page-1" stroke="none" stroke-width="1" fill="none" fill-rule="evenodd">
        <g id="parking" transform="translate(-1195.000000, -613.000000)" fill="#9A330C">
            <g id="строка-copy-4" transform="translate(164.000000, 611.000000)">
                <path d="M1031,2 L1048,2 L1048,27 L1031,27 L1031,2 Z M1043.5,15 C1043.2,15 1043,15.2 1043,15.5 L1043,17 L1036,17 L1036,15.5 C1036,15.2 1035.8,15 1035.5,15 C1035.2,15 1035,15.2 1035,15.5 L1035,17.5 C1035,17.8 1035.2,18 1035.5,18 L1043.5,18 C1043.8,18 1044,17.8 1044,17.5 L1044,15.5 C1044,15.2 1043.8,15 1043.5,15 Z M1039,15.7 C1039.1,15.9 1039.3,16 1039.5,16 C1039.7,16 1039.9,15.8 1040,15.6 L1041.9,14 C1042.1,13.8 1042.1,13.4 1041.9,13.1 C1041.7,12.9 1041.4,12.9 1041.2,13.1 L1040.1,14.1 L1040.1,10.5 C1040,10.2 1039.8,10 1039.5,10 C1039.2,10 1039,10.2 1039,10.5 L1039,14.2 L1037.8,13.2 C1037.6,13 1037.3,13 1037.1,13.2 C1036.9,13.4 1036.9,13.8 1037.1,14.1 L1039,15.7 Z" id="icon_download"></path>
            </g>
        </g>
    </g>
</svg>