<?xml version="1.0" encoding="utf-8"?>
<!-- Generator: Adobe Illustrator 22.1.0, SVG Export Plug-In . SVG Version: 6.00 Build 0)  -->
<svg version="1.1" id="df_1_" xmlns="http://www.w3.org/2000/svg" xmlns:xlink="http://www.w3.org/1999/xlink" x="0px" y="0px"
	 width="13px" height="18px" viewBox="0 0 13 18" enable-background="new 0 0 13 18" xml:space="preserve">
<path id="df" fill-rule="evenodd" clip-rule="evenodd" fill="#F7941E" d="M7.9,14.3c-0.8-0.5-2-0.5-2.8,0l-5,3c0-0.1,0-0.2,0-0.4V2
	c0-1.1,0.9-2,2-2h9c1.1,0,2,0.9,2,2v15c0,0.1,0,0.3,0,0.4L7.9,14.3z"/>
</svg>
