<?xml version="1.0" encoding="utf-8"?>
<!-- Generator: Adobe Illustrator 22.1.0, SVG Export Plug-In . SVG Version: 6.00 Build 0)  -->
<svg version="1.1" id="Слой_1" xmlns="http://www.w3.org/2000/svg" xmlns:xlink="http://www.w3.org/1999/xlink" x="0px" y="0px"
	 width="9px" height="16px" viewBox="0 0 9 16" enable-background="new 0 0 9 16" xml:space="preserve">
<g>
	<g>
		<path fill-rule="evenodd" clip-rule="evenodd" fill="#2B2634" d="M0.1,7.4l7.3-7.3c0.2-0.2,0.7,0,1.1,0.4s0.6,0.9,0.4,1.1L2.5,8
			l6.4,6.4c0.2,0.2,0,0.7-0.4,1.1c-0.4,0.4-0.9,0.6-1.1,0.4L0.1,8.6C0,8.5,0,8.3,0.1,8C0,7.8,0,7.5,0.1,7.4z"/>
	</g>
</g>
</svg>
