<?xml version="1.0" encoding="utf-8"?>
<!-- Generator: Adobe Illustrator 22.1.0, SVG Export Plug-In . SVG Version: 6.00 Build 0)  -->
<svg version="1.1" id="Слой_1" xmlns="http://www.w3.org/2000/svg" xmlns:xlink="http://www.w3.org/1999/xlink" x="0px" y="0px"
	 width="17px" height="25px" viewBox="0 0 17 25" enable-background="new 0 0 17 25" xml:space="preserve">
<g>
	<g>
		<path fill-rule="evenodd" clip-rule="evenodd" fill="#F7941E" d="M14,0H3C1.3,0,0,1.3,0,3v19c0,1.7,1.3,3,3,3h11c1.7,0,3-1.3,3-3
			V3C17,1.3,15.7,0,14,0z M16,22c0,1.1-0.9,2-2,2H3c-1.1,0-2-0.9-2-2V3c0-1.1,0.9-2,2-2h11c1.1,0,2,0.9,2,2V22z M12.5,13
			c-0.3,0-0.5,0.2-0.5,0.5V15H5v-1.5C5,13.2,4.8,13,4.5,13C4.2,13,4,13.2,4,13.5v2C4,15.8,4.2,16,4.5,16h8c0.3,0,0.5-0.2,0.5-0.5v-2
			C13,13.2,12.8,13,12.5,13z M8,13.7C8.1,13.9,8.3,14,8.5,14c0.2,0,0.4-0.2,0.5-0.4l1.9-1.6c0.2-0.2,0.2-0.6,0-0.9
			c-0.2-0.2-0.5-0.2-0.7,0l-1.1,1V8.5C9,8.2,8.8,8,8.5,8C8.2,8,8,8.2,8,8.5v3.7l-1.2-1c-0.2-0.2-0.5-0.2-0.7,0
			c-0.2,0.2-0.2,0.6,0,0.9L8,13.7z"/>
	</g>
</g>
</svg>
