{
    "flatsCommercial" : [
        {
            "id" : 0,
            "pic" : "img/mortgage/flats/information_items_property_84.png",
            "favourite" : true,
            "href" : "/choose/flat-1334/",
            "finish" : true,
            "decor" : true,
            "price" : 5000000,
            "house": "2\u0430",
            "section": 1,
            "floor": 1,
            "area" : 26,
            "rooms": 2,
            "partitions": 1,
            "corp" : "2к",
            "priceMeter": 999999,
            "type": "В-11-1.5"
        },
        {
            "id" : 1,
            "pic" : "img/mortgage/flats/information_items_property_148.png",
            "favourite" : false,
            "href" : "/choose/flat-1334/",
            "finish" : false,
            "decor" : false,
            "price" : 2000000,
            "house": "2\u0430",
            "section": 2,
            "floor": 2,
            "area" : 30,
            "rooms": 2,
            "partitions": 1,
            "corp" : "2к",
            "priceMeter": 888888,
            "type": "В-11-1.5"
        },
        {
            "id" : 3,
            "pic" : "img/mortgage/flats/information_items_property_148.png",
            "favourite" : false,
            "href" : "/choose/flat-1334/",
            "finish" : true,
            "decor" : false,
            "price" : 3000000,
            "house": "2\u0430",
            "section": 3,
            "floor": 3,
            "area" : 100,
            "rooms": 2,
            "partitions": 1,
            "corp" : "2к",
            "priceMeter": 500000,
            "type": "В-11-1.5"
        },
        {
            "id" : 4,
            "pic" : "img/mortgage/flats/information_items_property_148.png",
            "favourite" : false,
            "href" : "/choose/flat-1334/",
            "finish" : false,
            "decor" : true,
            "price" : 4000000,
            "house": "2\u0430",
            "section": 4,
            "floor": 4,
            "area" : 87,
            "rooms": 2,
            "partitions": 1,
            "corp" : "2к",
            "priceMeter": 666666,
            "type": "В-11-1.5"
        }
       
    ]
}
