<?xml version="1.0" encoding="utf-8"?>
<!-- Generator: Adobe Illustrator 22.1.0, SVG Export Plug-In . SVG Version: 6.00 Build 0)  -->
<svg version="1.1" id="layer" xmlns="http://www.w3.org/2000/svg" xmlns:xlink="http://www.w3.org/1999/xlink" x="0px" y="0px"
	 width="27px" height="27px" viewBox="0 0 27 27" style="enable-background:new 0 0 27 27;" xml:space="preserve">
<style type="text/css">
	.st0{fill:#101417;}
	.st1{fill:#FFFFFF;}
</style>
<path class="st0" d="M4,4c5.2-5.3,13.8-5.3,19,0c5.3,5.3,5.3,13.8,0,19.1C17.8,28.3,9.2,28.3,4,23C-1.3,17.8-1.3,9.2,4,4z"/>
<path class="st1" d="M18.5,14h-10C8.2,14,8,13.8,8,13.5S8.2,13,8.5,13h10c0.3,0,0.5,0.2,0.5,0.5S18.8,14,18.5,14z"/>
</svg>
