<svg xmlns="http://www.w3.org/2000/svg" width="2560" height="1440" viewBox="0 0 2560 1440">
  <title>k2</title>
  <g id="Слой_2" data-name="Слой 2">
    <g id="k2">
      <path d="M0,0V1440H2560V0ZM1852,1096c2-4,3-7-2-10-3.092-1.855-8,1-8,1-7-3-11,1-11,1h-3c-2-3-4-1-4-1h-4c1-3-4-4-4-4-7-16-23-11-23-11,1-6-4-7-4-7-1-5-7-5-7-5a2.938,2.938,0,0,0-3-3s1-3-4-4-11,3-11,3c-2-1-9.423,0-9.423,0l-7.088-3.311c-.511-4.309-3.489-3.691-3.489-3.691s0-4-3-5c-3.912-1.3-8.372,1.749-8.372,1.749L1472,924l20.4-167.8,7.8-62,59-48.6,52.6,19.3-3.3,30.3L1717.3,737,1934,819l55-76.5,65,23L1976,993l-78,130-41.9-19.573C1856,1097,1852,1096,1852,1096Z" fill="#060e23" opacity="0.5" style="isolation: isolate"/>
    </g>
  </g>
</svg>
