<?xml version="1.0" encoding="utf-8"?>
<!-- Generator: Adobe Illustrator 22.1.0, SVG Export Plug-In . SVG Version: 6.00 Build 0)  -->
<svg version="1.1" id="a" xmlns="http://www.w3.org/2000/svg" xmlns:xlink="http://www.w3.org/1999/xlink" x="0px" y="0px"
	 width="36px" height="50px" viewBox="0 0 36 50" style="enable-background:new 0 0 36 50;" xml:space="preserve">
<style type="text/css">
	.st0{fill:#008FD5;}
</style>
<g>
	<g>
		<path class="st0" d="M30,0H6C1,0,0,1.1,0,6v38c0,4.9,1,6,6,6h24c4.9,0,6-1,6-6V6C36,1,34.9,0,30,0z M34,44c0,3.1-1,4-4,4H6
			c-3,0-4-0.9-4-4V6c0-3.1,1-4,4-4h24c3,0,4,0.9,4,4V44z M29.5,8h-23C6.2,8,6,8.2,6,8.5v1C6,9.8,6.2,10,6.5,10h23
			c0.3,0,0.5-0.2,0.5-0.5v-1C30,8.2,29.8,8,29.5,8z M29.5,14h-23C6.2,14,6,14.2,6,14.5v1C6,15.8,6.2,16,6.5,16h23
			c0.3,0,0.5-0.2,0.5-0.5v-1C30,14.2,29.8,14,29.5,14z M29.5,20h-23C6.2,20,6,20.2,6,20.5v1C6,21.8,6.2,22,6.5,22h23
			c0.3,0,0.5-0.2,0.5-0.5v-1C30,20.2,29.8,20,29.5,20z M19.5,26h-13C6.2,26,6,26.2,6,26.5v1C6,27.8,6.2,28,6.5,28h13
			c0.3,0,0.5-0.2,0.5-0.5v-1C20,26.2,19.8,26,19.5,26z"/>
	</g>
</g>
</svg>
