<?xml version="1.0" encoding="utf-8"?>
<!-- Generator: Adobe Illustrator 22.0.1, SVG Export Plug-In . SVG Version: 6.00 Build 0)  -->
<svg version="1.1" id="fb" xmlns="http://www.w3.org/2000/svg" xmlns:xlink="http://www.w3.org/1999/xlink" x="0px" y="0px"
	 width="32px" height="32px" viewBox="0 0 32 32" enable-background="new 0 0 32 32" xml:space="preserve">
<path fill="#507398" d="M16,0c8.8,0,16,7.2,16,16s-7.2,16-16,16S0,24.8,0,16S7.2,0,16,0z"/>
<path id="XMLID_807_" fill="#FFFFFF" d="M23.2,17.6c0.6,0.7,1.4,1.3,2,2.1c0.2,0.3,0.5,0.7,0.7,1.1c0.3,0.5,0,1.2-0.4,1.2h-2.9
	c-0.7,0.1-1.4-0.2-1.9-0.8c-0.4-0.4-0.7-0.9-1.2-1.3c-0.2-0.2-0.3-0.3-0.5-0.5c-0.4-0.3-0.7-0.2-0.9,0.2c-0.2,0.4-0.3,1-0.3,1.4
	c0,0.8-0.2,0.9-0.9,1c-1.5,0.1-2.8-0.1-4.2-1c-1.2-0.7-2-1.6-2.8-2.9c-1.5-2.2-2.6-4.6-3.7-7c-0.2-0.4-0.1-0.8,0.5-0.8
	c0.9,0,1.9,0,2.8,0c0.4,0,0.6,0.2,0.8,0.7c0.5,1.3,1.2,2.6,1.9,3.8c0.2,0.3,0.4,0.7,0.7,0.9c0.3,0.2,0.6,0.2,0.7-0.2
	c0.1-0.2,0.1-0.5,0.2-0.8c0.1-1,0.1-1.9,0-2.9c-0.2-0.7-0.5-1-1-1.1c-0.2-0.1-0.2-0.2-0.1-0.3c0.2-0.3,0.4-0.4,0.8-0.4h3.2
	c0.6,0,0.7,0.2,0.8,0.9v4c0,0.2,0.1,0.9,0.4,1s0.5-0.1,0.6-0.3c0.7-0.9,1.4-2,1.9-3.1c0.2-0.4,0.4-1,0.6-1.4
	c0.1-0.3,0.3-0.5,0.7-0.5H25c0.1,0,0.2,0,0.3,0c0.5,0.1,0.6,0.3,0.5,0.9c-0.2,0.9-0.7,1.6-1.3,2.3c-0.5,0.8-1,1.5-1.6,2.3
	C22.4,16.6,22.5,17,23.2,17.6L23.2,17.6z"/>
</svg>
