<?xml version="1.0" encoding="utf-8"?>
<!-- Generator: Adobe Illustrator 22.0.1, SVG Export Plug-In . SVG Version: 6.00 Build 0)  -->
<svg version="1.1" id="fb" xmlns="http://www.w3.org/2000/svg" xmlns:xlink="http://www.w3.org/1999/xlink" x="0px" y="0px"
	 width="32px" height="32px" viewBox="0 0 32 32" enable-background="new 0 0 32 32" xml:space="preserve">
<g>
	<g>
		<path fill="#FFFFFF" d="M16,13c-1.6,0-3,1.3-3,3c0,1.6,1.3,3,3,3c1.6,0,3-1.4,3-3C19,14.4,17.6,13,16,13z M24.9,12.3
			c0-1-0.2-1.6-0.4-2.2c-0.2-0.6-0.5-1.1-1-1.6c-0.5-0.5-1-0.8-1.6-1c-0.6-0.2-1.2-0.4-2.2-0.4C18.8,7,18.4,7,16,7
			c-2.4,0-2.7,0-3.7,0.1c-1,0-1.6,0.2-2.2,0.4C9.5,7.7,9,8,8.5,8.5c-0.5,0.5-0.8,1-1,1.6c-0.2,0.6-0.4,1.2-0.4,2.2
			C7,13.3,7,13.6,7,16s0,2.7,0.1,3.7c0,1,0.2,1.6,0.4,2.2c0.2,0.6,0.5,1.1,1,1.6c0.5,0.5,1,0.8,1.6,1c0.6,0.2,1.2,0.4,2.2,0.4
			c1,0,1.3,0.1,3.7,0.1c2.4,0,2.7,0,3.7-0.1c1,0,1.6-0.2,2.2-0.4c0.6-0.2,1.1-0.5,1.6-1c0.5-0.5,0.8-1,1-1.6
			c0.2-0.6,0.4-1.2,0.4-2.2c0-1,0.1-1.3,0.1-3.7S25,13.3,24.9,12.3z M16,21c-2.8,0-5-2.2-5-5c0-2.8,2.2-5,5-5c2.8,0,5,2.3,5,5
			C21,18.8,18.8,21,16,21z M21.5,12.1c-0.9,0-1.6-0.7-1.6-1.6c0-0.9,0.7-1.6,1.6-1.6c0.9,0,1.6,0.7,1.6,1.6
			C23.1,11.4,22.4,12.1,21.5,12.1z"/>
	</g>
</g>
</svg>
