<?xml version="1.0" encoding="utf-8"?>
<!-- Generator: Adobe Illustrator 22.0.1, SVG Export Plug-In . SVG Version: 6.00 Build 0)  -->
<svg version="1.1" id="Слой_1" xmlns="http://www.w3.org/2000/svg" xmlns:xlink="http://www.w3.org/1999/xlink" x="0px" y="0px"
	 width="14px" height="14px" viewBox="0 0 14 14" enable-background="new 0 0 14 14" xml:space="preserve">
<title>Artboard 1</title>
<path fill="#9A330C" d="M12,3.5v7C10.5,9.5,8.8,9,7,9s-3.5,0.5-5,1.5v-7C3.5,4.5,5.2,5,7,5S10.5,4.5,12,3.5 M12,1h-0.1
	c-1.3,1.2-3,2-4.9,2S3.4,2.2,2.1,1H2C0.9,1,0,1.9,0,3v8c0,1.1,0.9,2,2,2h0.1c1.3-1.2,3-2,4.9-2s3.6,0.8,4.9,2H12c1.1,0,2-0.9,2-2V3
	C14,1.9,13.1,1,12,1L12,1z"/>
</svg>
