<?xml version="1.0" encoding="UTF-8"?>
<svg width="29px" height="18px" viewBox="0 0 29 18" version="1.1" xmlns="http://www.w3.org/2000/svg" xmlns:xlink="http://www.w3.org/1999/xlink">
    <!-- Generator: Sketch 58 (84663) - https://sketch.com -->
    <title>sofa</title>
    <desc>Created with Sketch.</desc>
    <g id="Page-1" stroke="none" stroke-width="1" fill="none" fill-rule="evenodd">
        <g id="apartments_1440" transform="translate(-1070.000000, -187.000000)" fill="#9A330C" fill-rule="nonzero">
            <g id="sofa" transform="translate(1070.000000, 187.000000)">
                <path d="M26,5.33333333 L26,2.28222222 C26,0.84 25.0502222,0 23.608,0 L5.29,0 C3.848,0 2.44444444,0.84 2.44444444,2.28222222 L2.44444444,5.33333333 L2.84222222,5.33333333 C4.09955556,5.33333333 4.88888889,6.02311111 4.88888889,7.28044444 L4.88888889,10.4444444 L23.5555556,10.4444444 L23.5555556,7.28044444 C23.5555556,6.02311111 24.7984444,5.33333333 26.0557778,5.33333333 L26,5.33333333 Z" id="Path"></path>
                <path d="M4.88888889,11.3333333 L4.88888889,11.6086667 L4.88888889,12.2204444 C4.88888889,12.6504444 5.47222222,13.3333333 5.902,13.3333333 L22.996,13.3333333 C23.4257778,13.3333333 23.5555556,12.6504444 23.5555556,12.2204444 L23.5555556,11.6086667 L23.5555556,11.3333333 L4.88888889,11.3333333 Z" id="Path"></path>
                <path d="M27.2797778,6.22222222 L26.0557778,6.22222222 C25.2884444,6.22222222 24.4444444,6.51311111 24.4444444,7.28044444 L24.4444444,11.6086667 L24.4444444,12.2204444 C24.4444444,13.1404444 23.916,14.2222222 22.996,14.2222222 L5.902,14.2222222 C4.982,14.2222222 4,13.1404444 4,12.2204444 L4,11.6086667 L4,7.28044444 C4,6.51311111 3.60955556,6.22222222 2.84222222,6.22222222 L1.61822222,6.22222222 C0.851111111,6.22222222 0,6.51311111 0,7.28044444 L0,12.8288889 C0,14.2711111 1.40022222,15.7777778 2.84222222,15.7777778 L2.66666667,15.7777778 L2.66666667,17.4444444 C2.66666667,17.5671111 2.99177778,18 3.11466667,18 L4.66666667,18 C4.78933333,18 4.66666667,17.5671111 4.66666667,17.4444444 L4.66666667,15.7777778 L23.7777778,15.7777778 L23.7777778,17.4444444 C23.7777778,17.5671111 24.0862222,18 24.2088889,18 L25.7608889,18 C25.8835556,18 25.7777778,17.5671111 25.7777778,17.4444444 L25.7777778,15.7777778 L26.0557778,15.7777778 C27.498,15.7777778 28.4444444,14.2711111 28.4444444,12.8288889 L28.4444444,7.28044444 C28.4444444,6.51311111 28.0471111,6.22222222 27.2797778,6.22222222 Z" id="Path"></path>
            </g>
        </g>
    </g>
</svg>