<?xml version="1.0" encoding="utf-8"?>
<!-- Generator: Adobe Illustrator 22.1.0, SVG Export Plug-In . SVG Version: 6.00 Build 0)  -->
<svg version="1.1" id="Слой_1" xmlns="http://www.w3.org/2000/svg" xmlns:xlink="http://www.w3.org/1999/xlink" x="0px" y="0px"
	 width="90px" height="25px" viewBox="0 0 90 25" enable-background="new 0 0 90 25" xml:space="preserve">
<g>
	<g>
		<path fill-rule="evenodd" clip-rule="evenodd" fill="#FD7B23" d="M90,16c0-0.3-0.1-0.7-0.2-0.9C89.4,12.2,88.4,7,87,7
			c-2,0-6,0-6,0s-4,0-6,0c-1.4,0-2.4,5.2-2.8,8.1C72.1,15.3,72,15.7,72,16v5c0,0.1,0,0.2,0,0.2c0,0.1,0,0.2,0,0.3v2
			c0,0.8,0.7,1.5,1.5,1.5c0.8,0,1.5-0.7,1.5-1.5V23h12v0.5c0,0.8,0.7,1.5,1.5,1.5c0.8,0,1.5-0.7,1.5-1.5v-2c0-0.1,0-0.2,0-0.3
			c0-0.1,0-0.2,0-0.2V16z M75.5,20c-0.8,0-1.5-0.7-1.5-1.5c0-0.8,0.7-1.5,1.5-1.5c0.8,0,2.5,1.7,2.5,2.5C78,20.3,76.3,20,75.5,20z
			 M74.3,14.1C74.9,11.3,76,9,76,9h10c0,0,1.1,2.3,1.7,5.1C86.8,14.3,83.9,15,81,15C78.1,15,75.2,14.3,74.3,14.1z M86.5,20
			c-0.8,0-2.5,0.3-2.5-0.5c0-0.8,1.7-2.5,2.5-2.5c0.8,0,1.5,0.7,1.5,1.5C88,19.3,87.3,20,86.5,20z M49,7h-4l4-6h-1l-4,6h-2l4-6h-1
			l-4,6h-4c-1.1,0-2,0.9-2,2v12c0,1.1,0.9,2,2,2v0.5c0,0.8,0.7,1.5,1.5,1.5c0.8,0,1.5-0.7,1.5-1.5V23h6v0.5c0,0.8,0.7,1.5,1.5,1.5
			c0.8,0,1.5-0.7,1.5-1.5V23c1.1,0,2-0.9,2-2V9C51,7.9,50.1,7,49,7z M38.5,20c-0.8,0-1.5-0.7-1.5-1.5c0-0.8,0.7-1.5,1.5-1.5
			c0.8,0,1.5,0.7,1.5,1.5C40,19.3,39.3,20,38.5,20z M42,16h-5v-5h5V16z M47.5,20c-0.8,0-1.5-0.7-1.5-1.5c0-0.8,0.7-1.5,1.5-1.5
			c0.8,0,1.5,0.7,1.5,1.5C49,19.3,48.3,20,47.5,20z M49,16h-5v-5h5V16z M14,7H2C0.9,7,0,7.9,0,9v12c0,1.1,0.9,2,2,2v0.5
			C2,24.3,2.7,25,3.5,25C4.3,25,5,24.3,5,23.5V23h6v0.5c0,0.8,0.7,1.5,1.5,1.5c0.8,0,1.5-0.7,1.5-1.5V23c1.1,0,2-0.9,2-2V9
			C16,7.9,15.1,7,14,7z M3.5,20C2.7,20,2,19.3,2,18.5C2,17.7,2.7,17,3.5,17C4.3,17,6,17.7,6,18.5C6,19.3,4.3,20,3.5,20z M12.5,20
			c-0.8,0-2.5-0.7-2.5-1.5c0-0.8,1.7-1.5,2.5-1.5c0.8,0,1.5,0.7,1.5,1.5C14,19.3,13.3,20,12.5,20z M14,14H2V9h12V14z"/>
	</g>
</g>
</svg>
