<svg xmlns="http://www.w3.org/2000/svg" xmlns:xlink="http://www.w3.org/1999/xlink" width="563" height="491" viewBox="0 0 563 491"><style>.st0{fill:#eaeaeb}.st1{fill:#e3e2e4}.st2,.st3{fill:#d7d6d8}.st4{fill:#b8b8ba}.st5{fill:#a9a9ab}.st6{fill:#1b1a1d}.st7{fill:#fff}.st8{fill:#e3e2e4}.st9{fill:#1b1a1d}.st10{fill:#fff}</style><g id="plan"><path d="M547.2 228H563v-10H381.2c-4 0-7.2-3.2-7.2-7.2V69.2c0-4 3.2-7.2 7.2-7.2H396V52h-14.8c-4 0-7.2-3.2-7.2-7.2V28h-10v16.8c0 4-3.2 7.2-7.2 7.2H214.2c-4 0-7.2-3.2-7.2-7.2V28h-10v16.8c0 4-3.2 7.2-7.2 7.2h-74.7c-4 0-7.2-3.2-7.2-7.2V0H98v422.5c0 6.9-5.6 12.5-12.5 12.5H77a9 9 0 0 1-9-9V0H28v422.5c0 6.9-5.6 12.5-12.5 12.5H0v30h15.5c6.9 0 12.5 5.6 12.5 12.5V491h40v-13.5c0-6.9 5.6-12.5 12.5-12.5H563v-30H386.5c-6.9 0-12.5-5.6-12.5-12.5v-20.3c0-4 3.2-7.2 7.2-7.2H563v-10h-15.8c-4 0-7.2-3.2-7.2-7.2V235.2c0-4 3.2-7.2 7.2-7.2zM108 422.5v-20.3c0-4 3.2-7.2 7.2-7.2h74.7c4 0 7.2 3.2 7.2 7.2v20.3c0 6.9-5.6 12.5-12.5 12.5h-63.9c-7.1 0-12.7-5.6-12.7-12.5zm256-187.3v142.7c0 4-3.2 7.2-7.2 7.2H214.2c-4 0-7.2-3.2-7.2-7.2V235.2c0-4 3.2-7.2 7.2-7.2h142.7c3.9 0 7.1 3.2 7.1 7.2zM207 422.5v-20.3c0-4 3.2-7.2 7.2-7.2h142.7c4 0 7.2 3.2 7.2 7.2v20.3c0 6.9-5.6 12.5-12.5 12.5H219.5c-6.9 0-12.5-5.6-12.5-12.5zM356.8 62c4 0 7.2 3.2 7.2 7.2v141.7c0 4-3.2 7.2-7.2 7.2H214.2c-4 0-7.2-3.2-7.2-7.2V69.2c0-4 3.2-7.2 7.2-7.2h142.6zm-167 0c4 0 7.2 3.2 7.2 7.2v308.7c0 4-3.2 7.2-7.2 7.2h-3.7c-4 0-7.2-3.2-7.2-7.2V375h-10v2.8c0 4-3.2 7.2-7.2 7.2H156c-4 0-7.2-3.2-7.2-7.2V375h-20v2.8c0 4-3.2 7.2-7.2 7.2h-6.7c-4 0-7.2-3.2-7.2-7.2V69.2c0-4 3.2-7.2 7.2-7.2h74.9zm191.4 323c-4 0-7.2-3.2-7.2-7.2V235.2c0-4 3.2-7.2 7.2-7.2h141.7c4 0 7.2 3.2 7.2 7.2v142.7c0 4-3.2 7.2-7.2 7.2H381.2v-.1z" class="st0"/><path d="M68 428c0-8.5 5.7-13 15.6-20 10.9-7.7 24.4-17.2 24.4-36.9H98c0 29-40 28.5-40 56.9h10zM58 26.5c0 28.4 40 27.9 40 56.9h10c0-19.7-13.5-29.2-24.4-36.9-10-7-15.6-11.5-15.6-20H58z" class="st0"/><path d="M118 72h69v303h-69V72z" class="st1"/><path d="M118 209h29V72h-29v137zM246 72h-29v137h29V72zm79 137h29V72h-29v137zm-7-137h-65v29h65V72zm0 108h-65v29h65v-29zM118 375h29V238h-29v137zm99 0h137v-29H217v29zm29-137h-29v101h29V238zm79 46h29v-46h-29v46zm0 55h29v-46h-29v46zm-7-101h-65v29h65v-29zm65 137h137v-29H383v29zm29-137h-29v101h29V238zm79 0v101h29V238h-29zm-7 0h-65v29h65v-29zM486.7 117.9l-14.8 3.9 2.6 5.4zM455.9 107.3l3.9 14.8 5.4-2.6zM471.9 121.8l6.1-28.6-12.8 26.3 4.5-2.2zM476.1 148.7l-3.9-14.8-5.4 2.6zM444.4 138.5l15.7-4.3-2.6-5.4z" class="st2"/><path d="M476.7 131.7l-4.5 2.2 28.6 6.1-26.3-12.8z" class="st2"/><path d="M460.1 134.2l-6.1 28.6 12.8-26.3-4.5 2.2z" fill="#F7941E"/><path d="M459.8 122.1l-28.6-6.1 26.3 12.8-2.2-4.5z" class="st2"/><path d="M463 125h6v6h-6z" fill="#F7941E" transform="rotate(-26 466 128)"/><g><path d="M417.8 115.7v-8.4h3.6c1.5 0 2.4.8 2.4 2 0 .9-.4 1.5-1.1 1.8 1.1.2 1.8 1 1.8 2.2 0 1.4-1 2.3-2.8 2.3l-3.9.1zm.9-4.9h2.6c1.1 0 1.7-.5 1.7-1.4s-.6-1.4-1.7-1.4h-2.6v2.8zm0 4.1h3c1.2 0 2-.6 2-1.6s-.7-1.6-2-1.6h-3v3.2zM447.9 176.6c-.8-.8-1.2-1.9-1.2-3.1s.4-2.3 1.2-3.1c.8-.8 1.8-1.2 3.1-1.2.9 0 1.7.2 2.4.6v.9c-.8-.5-1.6-.7-2.4-.7a3 3 0 0 0-2.4 1c-.7.7-1 1.5-1 2.5s.3 1.9 1 2.5 1.5 1 2.5 1 1.8-.3 2.5-.8v.9a4 4 0 0 1-2.5.7c-1.3 0-2.3-.4-3.2-1.2zM506.8 148.2v-.9a5 5 0 0 0 2.7.7c1.6 0 2.6-.7 2.6-1.8 0-1-.9-1.7-2.3-1.7h-1v-.8h1.1c1.2 0 1.9-.5 1.9-1.4s-.9-1.3-2.1-1.3a6 6 0 0 0-2.5.6v-.8c.8-.4 1.7-.6 2.5-.6.9 0 1.5.2 2.1.6.5.4.8.9.8 1.6 0 .5-.1.9-.4 1.2l-.9.6c.5.1.9.4 1.2.8.4.3.5.8.5 1.4 0 .7-.3 1.4-.9 1.8-.6.4-1.4.7-2.5.7-1.1-.1-2-.3-2.8-.7zM479.7 85.7a4.8 4.8 0 0 1-1.2-2.9h-1.7v3.9h-.9v-8.4h.9V82h1.7c.1-1.1.5-2 1.3-2.8.7-.7 1.6-1.1 2.7-1.1s2.1.4 2.8 1.2c.8.8 1.1 1.9 1.1 3.1s-.4 2.3-1.1 3.2c-.7.8-1.7 1.2-2.8 1.2s-2-.4-2.8-1.1zm2.8.3c.9 0 1.6-.3 2.2-1 .6-.6.9-1.5.9-2.5s-.3-1.9-.9-2.5-1.3-1-2.2-1-1.6.3-2.2 1c-.6.6-.9 1.5-.9 2.5s.3 1.9.9 2.5c.6.7 1.3 1 2.2 1z" class="st4"/></g><g><path d="M201.3 448.9c0 1.9 1.2 2.9 2.5 3.1l-2.6 4.2h2.2l2.4-4h1.9v4h1.9v-10.7h-4.7c-2.2 0-3.6 1.4-3.6 3.4zm6.4-1.7v3.4h-2.6c-1.1 0-1.8-.7-1.8-1.7s.8-1.7 1.8-1.7h2.6zm13.6-1.7H219l-2.7 3.9-2.8-3.9h-2.2l3.8 5.2-4 5.5h2.2l3-4.2 3 4.2h2.2l-4-5.5 3.8-5.2zm6.6 0h-4.7v10.7h1.9v-4h2.8c2.2 0 3.5-1.5 3.5-3.3 0-1.8-1.3-3.4-3.5-3.4zm-.3 5.1H225v-3.4h2.6c1.1 0 1.8.7 1.8 1.7s-.7 1.7-1.8 1.7zm10.7-5.3c-3.2 0-5.5 2.3-5.5 5.5s2.3 5.5 5.5 5.5 5.5-2.3 5.5-5.5c0-3.1-2.3-5.5-5.5-5.5zm0 9.4c-2.2 0-3.5-1.7-3.5-3.9s1.4-3.9 3.5-3.9 3.5 1.7 3.5 3.9c0 2.3-1.4 3.9-3.5 3.9zm13.2-2.1l-2.9-7H246v10.7h1.9v-7.9l3.3 7.9h.8l3.3-7.9v7.9h1.9v-10.7h-2.6l-3.1 7zm13.3-5.6c1.2 0 2.2.7 2.7 1.6l1.6-.8a4.8 4.8 0 0 0-4.3-2.4c-3.2 0-5.6 2.2-5.6 5.5s2.5 5.5 5.6 5.5c2.2 0 3.5-1.1 4.3-2.4l-1.6-.8c-.5.9-1.5 1.6-2.7 1.6-2.1 0-3.7-1.6-3.7-3.9s1.6-3.9 3.7-3.9zm14.6-1.5h-2.3l-4.2 5.1v-5.1H271v10.7h1.9v-3.4l.9-1.1 3.6 4.5h2.3l-4.7-5.6 4.4-5.1zm3.9 7.4v-7.4h-1.9v10.7h1.8l5.6-7.6v7.6h1.9v-10.7h-1.9l-5.5 7.4zm14.6-7.9c1.2 0 2.2-.5 2.8-1.4l-.8-.6c-.5.7-1.2 1.1-2 1.1-.9 0-1.6-.4-2.1-1.1l-.8.6c.8.8 1.8 1.4 2.9 1.4zm-2.7 7.9v-7.4h-1.9v10.7h1.8l5.6-7.6v7.6h1.9v-10.7h-1.9l-5.5 7.4zm14.5 3.3h1.9v-9h5.6v9h1.9v-10.7h-9.3v10.7h-.1zm16.7-10.7h-4.7v10.7h1.9v-4h2.8c2.2 0 3.5-1.5 3.5-3.3 0-1.8-1.2-3.4-3.5-3.4zm-.2 5.1h-2.6v-3.4h2.6c1.1 0 1.8.7 1.8 1.7s-.8 1.7-1.8 1.7zm10.6-5.3c-3.2 0-5.5 2.3-5.5 5.5s2.3 5.5 5.5 5.5 5.5-2.3 5.5-5.5c0-3.1-2.3-5.5-5.5-5.5zm0 9.4c-2.2 0-3.5-1.7-3.5-3.9s1.4-3.9 3.5-3.9 3.5 1.7 3.5 3.9c.1 2.3-1.3 3.9-3.5 3.9zm7.7 1.5h7.3v-1.6h-5.4v-3h5.3V450h-5.3v-2.8h5.4v-1.7h-7.3v10.7zm14.9-5.5c1.1-.2 2.3-1 2.3-2.5 0-1.8-1.8-2.9-4.1-2.9-1.8 0-3.3.7-4.1 1.7l1 1.2c.8-.8 1.9-1.2 2.9-1.2 1.3 0 2.4.5 2.4 1.5s-1 1.4-2.4 1.4h-2.1v1.6h2.1c1.6 0 2.6.4 2.6 1.5 0 1-.9 1.6-2.4 1.6-1.1 0-2.5-.5-3.2-1.3l-1 1.2c.7 1 2.3 1.7 4.2 1.7 2.5 0 4.2-1.3 4.2-3.1 0-1.5-1.4-2.3-2.4-2.4zm14 3.9v-9h-7.3l-.6 5.5c-.4 3.2-1 3.6-2.1 3.7v3.4h1.9v-2h7.2v2h1.9v-3.6h-1zm-1.8 0H366c.7-.7 1.2-1.7 1.4-3.4l.4-4h3.7v7.4h.1zM52.8 329.3H42.6v8.2l6.2.7c3.5.4 4 1.1 4.2 2.4h3.9v-2.1h-2.2v-8.1h2.2v-2.1h-4.1v1zm0 8.4c-.7-.8-2-1.4-3.8-1.6l-4.5-.5v-4.2h8.3v6.3zm1.8-24h-12v3l7.9 3.3-7.9 3.3v3h12v-2.1h-8.9l8.9-3.7v-.9l-8.9-3.7h8.9v-2.2zm0-13.4h-12v2.2l8.3 6.1h-8.3v2.1h12v-2l-8.6-6.3h8.6v-2.1zm0-8H44.5v-3.6h-1.9v9.4h1.9v-3.6h10.2v-2.2h-.1zm0-7.9h-4.5v-3.2c0-2.5-1.7-3.9-3.8-3.9s-3.8 1.4-3.8 3.9v5.3h12l.1-2.1zm-6.3 0h-3.8v-2.9c0-1.2.8-2.1 1.9-2.1 1.2 0 1.9.9 1.9 2.1v2.9zm.3-8.8c3.6 0 6.2-2.5 6.2-6.1s-2.6-6.1-6.2-6.1-6.2 2.5-6.2 6.1c0 3.6 2.6 6.1 6.2 6.1zm0-10.1c2.5 0 4.3 1.6 4.3 4s-1.9 4-4.3 4c-2.5 0-4.3-1.5-4.3-4 0-2.4 1.8-4 4.3-4zm-.2-11.9c-.2-1.1-1.2-2.1-2.8-2.1-1.7 0-3.1 1.2-3.1 3.4v5.9h12v-6.1c0-2.3-1.4-3.5-3.2-3.5-1.4.1-2.7 1.1-2.9 2.4zm-.8 5.2h-3.1v-3.4c0-1.1.7-1.7 1.6-1.7.9 0 1.5.6 1.5 1.7v3.4zm5.2-3.5v3.5h-3.3v-3.5c0-1.2.8-1.8 1.7-1.8.9 0 1.6.6 1.6 1.8zm-4.2-6a6 6 0 0 0 6.2-6.3c0-2.4-1.3-3.9-2.7-4.8l-.9 1.8c1 .6 1.7 1.7 1.7 3 0 2.4-1.8 4.1-4.3 4.1s-4.3-1.8-4.3-4.1c0-1.3.8-2.4 1.7-3l-.9-1.8a5.5 5.5 0 0 0-2.7 4.8 6 6 0 0 0 6.2 6.3zm6-23l-6.3 5.2-5.7-4.9v2.6l5.7 4.7h-5.7v2.1h12v-2.1h-3.8l-1.2-1 5.1-4-.1-2.6zm-6-.5c3.6 0 6.2-2.5 6.2-6.1s-2.6-6.1-6.2-6.1-6.2 2.5-6.2 6.1c0 3.6 2.6 6.1 6.2 6.1zm0-10.1c2.5 0 4.3 1.6 4.3 4s-1.9 4-4.3 4c-2.5 0-4.3-1.5-4.3-4 0-2.4 1.8-4 4.3-4zm-6-12.8v8.2h12v-8.2h-1.9v6.1h-3.3v-6h-1.9v6h-3.1v-6.1h-1.8zm12-22.3h-12v2.1h10.2v4.1H42.6v2.1h10.2v4.1H42.6v2.1h12v-14.5zm-6-2.5c3.6 0 6.2-2.5 6.2-6.1s-2.6-6.1-6.2-6.1-6.2 2.5-6.2 6.1c0 3.6 2.6 6.1 6.2 6.1zm0-10.1c2.5 0 4.3 1.6 4.3 4s-1.9 4-4.3 4c-2.5 0-4.3-1.5-4.3-4 0-2.4 1.8-4 4.3-4zm0-4.1a6 6 0 0 0 6.2-6.3c0-2.4-1.3-3.9-2.7-4.8l-.9 1.8c1 .6 1.7 1.7 1.7 3 0 2.4-1.8 4.1-4.3 4.1s-4.3-1.8-4.3-4.1c0-1.3.8-2.4 1.7-3l-.9-1.8a5.5 5.5 0 0 0-2.7 4.8c0 3.6 2.5 6.3 6.2 6.3zm0-12.7a6 6 0 0 0 6.2-6.3c0-2.4-1.3-3.9-2.7-4.8l-.9 1.8c1 .6 1.7 1.7 1.7 3 0 2.4-1.8 4.1-4.3 4.1s-4.3-1.8-4.3-4.1c0-1.3.8-2.4 1.7-3l-.9-1.8a5.5 5.5 0 0 0-2.7 4.8 6 6 0 0 0 6.2 6.3zm6-21.5h-1.9v6.1h-3.3v-6h-1.9v6h-3.1v-6.1h-1.9v8.2h12v-8.2h.1z" class="st5"/></g><g id="text"><path d="M280.1 199.4c-1.4 0-2.4-.6-3-1.5l-.6.5c.6 1 1.9 1.8 3.6 1.8 2.3 0 3.6-1.3 3.6-3.1s-1.5-2.6-2.4-2.7c.9-.2 2.3-.9 2.3-2.5 0-1.8-1.6-2.8-3.4-2.8-1.6 0-2.7.7-3.5 1.6l.6.6c.8-.9 1.6-1.4 2.9-1.4 1.4 0 2.6.7 2.6 2.1 0 1.4-1.3 2-2.7 2h-1v.9h1c1.6 0 2.9.6 2.9 2.2-.2 1.4-1.2 2.3-2.9 2.3zm12.1-1.5a2 2 0 0 0-1.4-1.9c.6-.2 1.2-.8 1.2-1.8 0-1.2-.8-2-2.1-2h-4v7.7h4c1.5.1 2.3-.7 2.3-2zm-5.4-4.9h3c.9 0 1.4.5 1.4 1.3 0 .7-.5 1.3-1.4 1.3h-3V193zm0 6.2v-2.9h3c1 0 1.5.7 1.5 1.5 0 .9-.5 1.4-1.5 1.4h-3zm-4.7-108.8c-1.4 0-2.4-.6-3-1.5l-.6.5c.6 1 1.9 1.8 3.6 1.8 2.3 0 3.6-1.3 3.6-3.1s-1.5-2.6-2.4-2.7c.9-.2 2.3-.9 2.3-2.5 0-1.8-1.6-2.8-3.4-2.8-1.6 0-2.7.7-3.5 1.6l.6.6c.8-.9 1.6-1.4 2.9-1.4 1.4 0 2.6.7 2.6 2.1 0 1.4-1.3 2-2.7 2h-1v.9h1c1.6 0 2.9.6 2.9 2.2-.2 1.4-1.2 2.3-2.9 2.3zm6.7-6.4h4.2v-.7h-5V91h.8v-7zm-57.9 53.2c0-2.1-1.8-3-3.4-3-1.5 0-2.8.6-3.6 1.6l.6.6c.6-.8 1.6-1.4 2.9-1.4 1.2 0 2.4.6 2.4 2.2 0 2.1-2.4 4.1-6.1 7.1v.8h7v-.8h-5.6c3.3-2.6 5.8-4.8 5.8-7.1zm6.1-.1c-1.6 0-2.5.9-3 1.9.3-1.6.9-2.7 3.6-3.1 1.3-.2 2.8-.5 2.8-1.6h-.8c0 .3-.5.6-2.2.8-2.8.4-4.1 1.8-4.1 5.6 0 2.6 1.4 4.4 3.7 4.4 2.3 0 3.7-1.8 3.7-4.1-.1-2.1-1.5-3.9-3.7-3.9zm-.1 7.3c-1.8 0-2.8-1.6-2.8-3.3 0-1.7 1-3.3 2.8-3.3 1.8 0 2.8 1.6 2.8 3.3 0 1.8-1 3.3-2.8 3.3zm98.2 0c-1.4 0-2.4-.6-3-1.5l-.6.5c.6 1 1.9 1.8 3.6 1.8 2.3 0 3.6-1.3 3.6-3.1s-1.5-2.6-2.4-2.7c.9-.2 2.3-.9 2.3-2.5 0-1.8-1.6-2.8-3.4-2.8-1.6 0-2.7.7-3.5 1.6l.6.6c.8-.9 1.6-1.4 2.9-1.4 1.4 0 2.6.7 2.6 2.1 0 1.4-1.3 2-2.7 2h-1v.9h1c1.6 0 2.9.6 2.9 2.2-.2 1.4-1.2 2.3-2.9 2.3zm10.8-.3v.9h.8v-5.4c0-1.7-1.2-2.5-2.8-2.5-1.3 0-2.2.4-3 1.3l.5.6a3 3 0 0 1 2.4-1.1c1.2 0 2.1.6 2.1 1.8v1.6a3.3 3.3 0 0 0-2.6-1.1c-1.3 0-2.7.9-2.7 2.6 0 1.7 1.4 2.6 2.7 2.6 1.1-.2 1.9-.6 2.6-1.3zm-4.4-1.5c0-1.1.8-1.9 2.1-1.9.9 0 1.8.4 2.3 1.1v1.7c-.5.7-1.4 1.1-2.3 1.1-1.3-.1-2.1-.9-2.1-2zM126.4 286.8l.6.6 1.7-1.8v9.4h.9v-10.7h-.8l-2.4 2.5zm8.8.3c-1.3 0-2.2.4-3 1.3l.5.6a3 3 0 0 1 2.4-1.1c1.2 0 2.1.6 2.1 1.8v1.6a3.3 3.3 0 0 0-2.6-1.1c-1.3 0-2.7.9-2.7 2.6 0 1.7 1.4 2.6 2.7 2.6 1.1 0 1.9-.4 2.6-1.1v.9h.8v-5.4c0-2-1.3-2.7-2.8-2.7zm1.9 6.4c-.5.7-1.4 1.1-2.3 1.1-1.3 0-2.1-.8-2.1-1.9 0-1.1.8-1.9 2.1-1.9.9 0 1.8.4 2.3 1.1v1.6zM126.7 145h.9v-10.7h-.8l-2.4 2.5.6.6 1.7-1.8v9.4zm10.5-3.9c0-2.2-1.4-4-3.6-4-1.6 0-2.5.9-3 1.9.3-1.6.9-2.7 3.6-3.1 1.3-.2 2.8-.5 2.8-1.6h-.8c0 .3-.5.6-2.2.8-2.8.4-4.1 1.8-4.1 5.6 0 2.6 1.4 4.4 3.7 4.4 2.2.1 3.6-1.7 3.6-4zm-6.5 0c0-1.7 1-3.3 2.8-3.3 1.8 0 2.8 1.6 2.8 3.3 0 1.7-1 3.3-2.8 3.3-1.8 0-2.8-1.5-2.8-3.3zm28.7 79.7l.6.6 1.7-1.8v9.4h.9v-10.7h-.8l-2.4 2.5zm10.7 4.2c.6-.2 1.2-.8 1.2-1.8 0-1.2-.8-2-2.1-2h-4v7.7h4c1.3 0 2.2-.8 2.2-2.1a2 2 0 0 0-1.3-1.8zm-4-3h3c.9 0 1.4.5 1.4 1.3 0 .7-.5 1.3-1.4 1.3h-3V222zm3 6.2h-3v-2.9h3c1 0 1.5.7 1.5 1.5 0 .9-.6 1.4-1.5 1.4zm115.8 130c0-2.1-1.8-3-3.4-3-1.5 0-2.8.6-3.6 1.6l.6.6c.6-.8 1.6-1.4 2.9-1.4 1.2 0 2.4.6 2.4 2.2 0 2.1-2.4 4.1-6.1 7.1v.8h7v-.8h-5.6c3.3-2.6 5.8-4.8 5.8-7.1zm5.6-.1c-1.3 0-2.2.4-3 1.3l.5.6a3 3 0 0 1 2.4-1.1c1.2 0 2.1.6 2.1 1.8v1.6a3.3 3.3 0 0 0-2.6-1.1c-1.3 0-2.7.9-2.7 2.6 0 1.7 1.4 2.6 2.7 2.6 1.1 0 1.9-.4 2.6-1.1v.9h.8v-5.4c.1-2-1.2-2.7-2.8-2.7zm2 6.4c-.5.7-1.4 1.1-2.3 1.1-1.3 0-2.1-.8-2.1-1.9 0-1.1.8-1.9 2.1-1.9.9 0 1.8.4 2.3 1.1v1.6zm-8.6-107.3h-5.6c3.1-2.5 5.6-4.6 5.6-7 0-2.1-1.8-3-3.4-3-1.5 0-2.8.6-3.6 1.6l.6.6c.6-.8 1.6-1.4 2.9-1.4 1.2 0 2.4.6 2.4 2.2 0 2.1-2.4 4.1-6.1 7.1v.8h7v-.9zm8.8-6.9h-4.9l-.5 3.9c-.3 2.5-.9 3.1-1.6 3.2v2.7h.8v-2h6.3v2h.8v-2.7h-.9v-7.1zm-.9 6.9h-5c.6-.4 1-1.3 1.2-3l.4-3.2h3.3v6.2zm-60.9 30c0-2.1-1.8-3-3.4-3-1.5 0-2.8.6-3.6 1.6l.6.6c.6-.8 1.6-1.4 2.9-1.4 1.2 0 2.4.6 2.4 2.2 0 2.1-2.4 4.1-6.1 7.1v.8h7v-.8h-5.6c3.3-2.6 5.8-4.8 5.8-7.1zm6.1-.1c-1.6 0-2.5.9-3 1.9.3-1.6.9-2.7 3.6-3.1 1.3-.2 2.8-.5 2.8-1.6h-.8c0 .3-.5.6-2.2.8-2.8.4-4.1 1.8-4.1 5.6 0 2.6 1.4 4.4 3.7 4.4 2.3 0 3.7-1.8 3.7-4.1-.1-2.1-1.5-3.9-3.7-3.9zm-.1 7.3c-1.8 0-2.8-1.6-2.8-3.3 0-1.7 1-3.3 2.8-3.3 1.8 0 2.8 1.6 2.8 3.3 0 1.8-1 3.3-2.8 3.3zm103-37.2c0-2.1-1.8-3-3.4-3-1.5 0-2.8.6-3.6 1.6l.6.6c.6-.8 1.6-1.4 2.9-1.4 1.2 0 2.4.6 2.4 2.2 0 2.1-2.4 4.1-6.1 7.1v.8h7v-.8h-5.6c3.3-2.6 5.8-4.8 5.8-7.1zm2.7 7.8h.8v-7h4.2v-.7h-5.1v7.7zm-3.7 48.2c0-2.1-1.8-3-3.4-3-1.5 0-2.8.6-3.6 1.6l.6.6c.6-.8 1.6-1.4 2.9-1.4 1.2 0 2.4.6 2.4 2.2 0 2.1-2.4 4.1-6.1 7.1v.8h7v-.8h-5.6c3.3-2.6 5.8-4.8 5.8-7.1zm7.5 3.8c.6-.2 1.2-.8 1.2-1.8 0-1.2-.8-2-2.1-2h-4v7.7h4c1.3 0 2.2-.8 2.2-2.1.1-.8-.5-1.6-1.3-1.8zm-4-3h3c.9 0 1.4.5 1.4 1.3 0 .7-.5 1.3-1.4 1.3h-3V314zm3.1 6.2h-3v-2.9h3c1 0 1.5.7 1.5 1.5-.1.9-.6 1.4-1.5 1.4zm105 35.1h-1.2l-4.7 6.9v.8h5.1v2.9h.9V363h1.6v-.8h-1.6v-6.9zm-.9 7h-4.1l4.1-6v6zm7.3-4.2c-1.3 0-2.2.4-3 1.3l.5.6a3 3 0 0 1 2.4-1.1c1.2 0 2.1.6 2.1 1.8v1.6a3.3 3.3 0 0 0-2.6-1.1c-1.3 0-2.7.9-2.7 2.6 0 1.7 1.4 2.6 2.7 2.6 1.1 0 1.9-.4 2.6-1.1v.9h.8v-5.4c0-2-1.2-2.7-2.8-2.7zm2 6.4c-.5.7-1.4 1.1-2.3 1.1-1.3 0-2.1-.8-2.1-1.9 0-1.1.8-1.9 2.1-1.9.9 0 1.8.4 2.3 1.1v1.6zm-8.4-117.2h-1.2l-4.7 6.9v.8h5.1v2.9h.9V255h1.6v-.8h-1.6v-6.9zm-.9 7h-4.1l4.1-6v6zm5.2-3.3h4.2v-.7h-5v7.7h.8v-7zm48.7 33.3h-1.2l-4.7 6.9v.8h5.1v2.9h.9V292h1.6v-.8h-1.6v-6.9zm-.9 7h-4.1l4.1-6v6zm7.7-4.2c-1.6 0-2.5.9-3 1.9.3-1.6.9-2.7 3.6-3.1 1.3-.2 2.8-.5 2.8-1.6h-.8c0 .3-.5.6-2.2.8-2.8.4-4.1 1.8-4.1 5.6 0 2.6 1.4 4.4 3.7 4.4 2.3 0 3.7-1.8 3.7-4.1-.1-2.1-1.5-3.9-3.7-3.9zm-.1 7.3c-1.8 0-2.8-1.6-2.8-3.3 0-1.7 1-3.3 2.8-3.3 1.8 0 2.8 1.6 2.8 3.3.1 1.8-1 3.3-2.8 3.3zm-114.7-10.1h-1.2l-4.7 6.9v.8h5.1v2.9h.9V292h1.6v-.8h-1.6v-6.9zm-.9 7h-4.1l4.1-6v6zm9.2-.3c.6-.2 1.2-.8 1.2-1.8 0-1.2-.8-2-2.1-2h-4v7.7h4c1.3 0 2.2-.8 2.2-2.1.1-.8-.5-1.6-1.3-1.8zm-4-3h3c.9 0 1.4.5 1.4 1.3 0 .7-.5 1.3-1.4 1.3h-3V288zm3 6.2h-3v-2.9h3c1 0 1.5.7 1.5 1.5 0 .9-.6 1.4-1.5 1.4z" class="st6"/></g></g>

<!-- START: Links -->
<a target="_blank" xlink:href="https://www.adobe.com/support/products/enterprise/knowledgecenter/media/c4611_sample_explain.pdf"><g id="K4"><path d="M382 233h139a4 4 0 0 1 4 4v139a4 4 0 0 1-4 4H382a4 4 0 0 1-4-4V237a4 4 0 0 1 4-4z" class="st7"/><path d="M383 346h137v29H383zM383 238h29v101h-29zM491 238h29v101h-29zM419 238h65v29h-65z" class="st3"/><path id="text_1_" d="M450.5 355.3h-1.2l-4.7 6.9v.8h5.1v2.9h.9V363h1.6v-.8h-1.6v-6.9zm-.9 7h-4.1l4.1-6v6zm7.3-4.2c-1.3 0-2.2.4-3 1.3l.5.6a3 3 0 0 1 2.4-1.1c1.2 0 2.1.6 2.1 1.8v1.6a3.3 3.3 0 0 0-2.6-1.1c-1.3 0-2.7.9-2.7 2.6 0 1.7 1.4 2.6 2.7 2.6 1.1 0 1.9-.4 2.6-1.1v.9h.8v-5.4c0-2-1.2-2.7-2.8-2.7zm2 6.4c-.5.7-1.4 1.1-2.3 1.1-1.3 0-2.1-.8-2.1-1.9 0-1.1.8-1.9 2.1-1.9.9 0 1.8.4 2.3 1.1v1.6zm-8.4-117.2h-1.2l-4.7 6.9v.8h5.1v2.9h.9V255h1.6v-.8h-1.6v-6.9zm-.9 7h-4.1l4.1-6v6zm5.2-3.3h4.2v-.7h-5v7.7h.8v-7zm48.7 33.3h-1.2l-4.7 6.9v.8h5.1v2.9h.9V292h1.6v-.8h-1.6v-6.9zm-.9 7h-4.1l4.1-6v6zm7.7-4.2c-1.6 0-2.5.9-3 1.9.3-1.6.9-2.7 3.6-3.1 1.3-.2 2.8-.5 2.8-1.6h-.8c0 .3-.5.6-2.2.8-2.8.4-4.1 1.8-4.1 5.6 0 2.6 1.4 4.4 3.7 4.4 2.3 0 3.7-1.8 3.7-4.1-.1-2.1-1.5-3.9-3.7-3.9zm-.1 7.3c-1.8 0-2.8-1.6-2.8-3.3 0-1.7 1-3.3 2.8-3.3 1.8 0 2.8 1.6 2.8 3.3.1 1.8-1 3.3-2.8 3.3zm-114.7-10.1h-1.2l-4.7 6.9v.8h5.1v2.9h.9V292h1.6v-.8h-1.6v-6.9zm-.9 7h-4.1l4.1-6v6zm9.2-.3c.6-.2 1.2-.8 1.2-1.8 0-1.2-.8-2-2.1-2h-4v7.7h4c1.3 0 2.2-.8 2.2-2.1.1-.8-.5-1.6-1.3-1.8zm-4-3h3c.9 0 1.4.5 1.4 1.3 0 .7-.5 1.3-1.4 1.3h-3V288zm3 6.2h-3v-2.9h3c1 0 1.5.7 1.5 1.5 0 .9-.6 1.4-1.5 1.4z" class="st9"/><path id="text_x5F_orange" d="M451.4 299.3H448l-3.3 4.4v-4.4H442V310h2.8v-3.1l.7-.9 2.8 4h3.4l-4.4-5.7 4.1-5zm8.3 6.3v-6.3h-3.8l-4 6.6v2.1h5.1v2h2.8v-2h1.3v-2.4h-1.4zm-2.8 0h-2.4l2.4-3.9v3.9z" class="st10"/></g></a>


<a target="_blank" xlink:href="https://www.adobe.com/support/products/enterprise/knowledgecenter/media/c4611_sample_explain.pdf"><g id="K3"><path d="M216 67h139a4 4 0 0 1 4 4v139a4 4 0 0 1-4 4H216a4 4 0 0 1-4-4V71a4 4 0 0 1 4-4z" class="st7"/><path d="M217 72h29v137h-29zM325 72h29v137h-29zM253 72h65v29h-65zM253 180h65v29h-65z" class="st3"/><path id="text_2_" d="M281.3 194.5c.9-.2 2.3-.9 2.3-2.5 0-1.8-1.6-2.8-3.4-2.8-1.6 0-2.7.7-3.5 1.6l.6.6c.8-.9 1.6-1.4 2.9-1.4 1.4 0 2.6.7 2.6 2.1 0 1.4-1.3 2-2.7 2h-1v.9h1c1.6 0 2.9.6 2.9 2.2 0 1.4-1 2.3-2.7 2.3-1.4 0-2.4-.6-3-1.5l-.6.5c.6 1 1.9 1.8 3.6 1.8 2.3 0 3.6-1.3 3.6-3.1a3 3 0 0 0-2.6-2.7zm9.5 1.5c.6-.2 1.2-.8 1.2-1.8 0-1.2-.8-2-2.1-2h-4v7.7h4c1.3 0 2.2-.8 2.2-2.1.1-.8-.5-1.6-1.3-1.8zm-4-3h3c.9 0 1.4.5 1.4 1.3 0 .7-.5 1.3-1.4 1.3h-3V193zm3.1 6.2h-3v-2.9h3c1 0 1.5.7 1.5 1.5-.1.9-.6 1.4-1.5 1.4zm-6.6-113.7c.9-.2 2.3-.9 2.3-2.5 0-1.8-1.6-2.8-3.4-2.8-1.6 0-2.7.7-3.5 1.6l.6.6c.8-.9 1.6-1.4 2.9-1.4 1.4 0 2.6.7 2.6 2.1 0 1.4-1.3 2-2.7 2h-1v.9h1c1.6 0 2.9.6 2.9 2.2 0 1.4-1 2.3-2.7 2.3-1.4 0-2.4-.6-3-1.5l-.6.5c.6 1 1.9 1.8 3.6 1.8 2.3 0 3.6-1.3 3.6-3.1a3 3 0 0 0-2.6-2.7zM288 91h.8v-7h4.2v-.7h-5V91zm-59.7 48.5c.9-.2 2.3-.9 2.3-2.5 0-1.8-1.6-2.8-3.4-2.8-1.6 0-2.7.7-3.5 1.6l.6.6c.8-.9 1.6-1.4 2.9-1.4 1.4 0 2.6.7 2.6 2.1 0 1.4-1.3 2-2.7 2h-1v.9h1c1.6 0 2.9.6 2.9 2.2 0 1.4-1 2.3-2.7 2.3-1.4 0-2.4-.6-3-1.5l-.6.5c.6 1 1.9 1.8 3.6 1.8 2.3 0 3.6-1.3 3.6-3.1a3 3 0 0 0-2.6-2.7zm8.7-2.4c-1.6 0-2.5.9-3 1.9.3-1.6.9-2.7 3.6-3.1 1.3-.2 2.8-.5 2.8-1.6h-.8c0 .3-.5.6-2.2.8-2.8.4-4.1 1.8-4.1 5.6 0 2.6 1.4 4.4 3.7 4.4 2.3 0 3.7-1.8 3.7-4.1-.1-2.1-1.5-3.9-3.7-3.9zm-.1 7.3c-1.8 0-2.8-1.6-2.8-3.3 0-1.7 1-3.3 2.8-3.3 1.8 0 2.8 1.6 2.8 3.3 0 1.8-1 3.3-2.8 3.3zm99.4-4.9c.9-.2 2.3-.9 2.3-2.5 0-1.8-1.6-2.8-3.4-2.8-1.6 0-2.7.7-3.5 1.6l.6.6c.8-.9 1.6-1.4 2.9-1.4 1.4 0 2.6.7 2.6 2.1 0 1.4-1.3 2-2.7 2h-1v.9h1c1.6 0 2.9.6 2.9 2.2 0 1.4-1 2.3-2.7 2.3-1.4 0-2.4-.6-3-1.5l-.6.5c.6 1 1.9 1.8 3.6 1.8 2.3 0 3.6-1.3 3.6-3.1a3 3 0 0 0-2.6-2.7zm7.6-2.4c-1.3 0-2.2.4-3 1.3l.5.6a3 3 0 0 1 2.4-1.1c1.2 0 2.1.6 2.1 1.8v1.6a3.3 3.3 0 0 0-2.6-1.1c-1.3 0-2.7.9-2.7 2.6 0 1.7 1.4 2.6 2.7 2.6 1.1 0 1.9-.4 2.6-1.1v.9h.8v-5.4c0-2-1.2-2.7-2.8-2.7zm2 6.4c-.5.7-1.4 1.1-2.3 1.1-1.3 0-2.1-.8-2.1-1.9 0-1.1.8-1.9 2.1-1.9.9 0 1.8.4 2.3 1.1v1.6z" class="st9"/><path id="text_x5F_orange_1_" d="M285.4 134.3H282l-3.3 4.4v-4.4H276V145h2.8v-3.1l.7-.9 2.8 4h3.4l-4.4-5.7 4.1-5zm6.6 5.2c1.3-.2 2.3-1.2 2.3-2.4 0-1.8-1.5-2.9-4.2-2.9-2 0-3.4.7-4.3 1.7l1.3 1.7a4 4 0 0 1 2.7-1c1 0 1.8.3 1.8 1 0 .6-.6.8-1.7.8h-1.4v2.4h1.4c1.5 0 1.9.3 1.9.9 0 .6-.6 1-1.8 1-.9 0-2.1-.4-2.9-1.1l-1.4 1.9c.8 1 2.4 1.7 4.4 1.7 2.7 0 4.4-1.3 4.4-3.2.1-1.5-1.3-2.4-2.5-2.5z" class="st10"/></g></a>


<a target="_blank" xlink:href="https://www.adobe.com/support/products/enterprise/knowledgecenter/media/c4611_sample_explain.pdf"><g id="K2"><path d="M216 233h139a4 4 0 0 1 4 4v139a4 4 0 0 1-4 4H216a4 4 0 0 1-4-4V237a4 4 0 0 1 4-4z" class="st7"/><path d="M217 346h137v29H217zM217 238h29v101h-29zM325 238h29v46h-29zM325 293h29v46h-29zM253 238h65v29h-65z" class="st3"/><path id="text_3_" d="M284.9 358.2c0-2.1-1.8-3-3.4-3-1.5 0-2.8.6-3.6 1.6l.6.6c.6-.8 1.6-1.4 2.9-1.4 1.2 0 2.4.6 2.4 2.2 0 2.1-2.4 4.1-6.1 7.1v.8h7v-.8h-5.6c3.3-2.6 5.8-4.8 5.8-7.1zm5.6-.1c-1.3 0-2.2.4-3 1.3l.5.6a3 3 0 0 1 2.4-1.1c1.2 0 2.1.6 2.1 1.8v1.6a3.3 3.3 0 0 0-2.6-1.1c-1.3 0-2.7.9-2.7 2.6 0 1.7 1.4 2.6 2.7 2.6 1.1 0 1.9-.4 2.6-1.1v.9h.8v-5.4c.1-2-1.2-2.7-2.8-2.7zm2 6.4c-.5.7-1.4 1.1-2.3 1.1-1.3 0-2.1-.8-2.1-1.9 0-1.1.8-1.9 2.1-1.9.9 0 1.8.4 2.3 1.1v1.6zm-8.6-107.3h-5.6c3.1-2.5 5.6-4.6 5.6-7 0-2.1-1.8-3-3.4-3-1.5 0-2.8.6-3.6 1.6l.6.6c.6-.8 1.6-1.4 2.9-1.4 1.2 0 2.4.6 2.4 2.2 0 2.1-2.4 4.1-6.1 7.1v.8h7v-.9zm8.8-6.9h-4.9l-.5 3.9c-.3 2.5-.9 3.1-1.6 3.2v2.7h.8v-2h6.3v2h.8v-2.7h-.9v-7.1zm-.9 6.9h-5c.6-.4 1-1.3 1.2-3l.4-3.2h3.3v6.2zm-60.9 30c0-2.1-1.8-3-3.4-3-1.5 0-2.8.6-3.6 1.6l.6.6c.6-.8 1.6-1.4 2.9-1.4 1.2 0 2.4.6 2.4 2.2 0 2.1-2.4 4.1-6.1 7.1v.8h7v-.8h-5.6c3.3-2.6 5.8-4.8 5.8-7.1zm6.1-.1c-1.6 0-2.5.9-3 1.9.3-1.6.9-2.7 3.6-3.1 1.3-.2 2.8-.5 2.8-1.6h-.8c0 .3-.5.6-2.2.8-2.8.4-4.1 1.8-4.1 5.6 0 2.6 1.4 4.4 3.7 4.4 2.3 0 3.7-1.8 3.7-4.1-.1-2.1-1.5-3.9-3.7-3.9zm-.1 7.3c-1.8 0-2.8-1.6-2.8-3.3 0-1.7 1-3.3 2.8-3.3 1.8 0 2.8 1.6 2.8 3.3 0 1.8-1 3.3-2.8 3.3zm103-37.2c0-2.1-1.8-3-3.4-3-1.5 0-2.8.6-3.6 1.6l.6.6c.6-.8 1.6-1.4 2.9-1.4 1.2 0 2.4.6 2.4 2.2 0 2.1-2.4 4.1-6.1 7.1v.8h7v-.8h-5.6c3.3-2.6 5.8-4.8 5.8-7.1zm3.5.8h4.2v-.7h-5.1v7.7h.8v-7zm-4.5 55.2c0-2.1-1.8-3-3.4-3-1.5 0-2.8.6-3.6 1.6l.6.6c.6-.8 1.6-1.4 2.9-1.4 1.2 0 2.4.6 2.4 2.2 0 2.1-2.4 4.1-6.1 7.1v.8h7v-.8h-5.6c3.3-2.6 5.8-4.8 5.8-7.1zm7.5 3.8c.6-.2 1.2-.8 1.2-1.8 0-1.2-.8-2-2.1-2h-4v7.7h4c1.3 0 2.2-.8 2.2-2.1.1-.8-.5-1.6-1.3-1.8zm-4-3h3c.9 0 1.4.5 1.4 1.3 0 .7-.5 1.3-1.4 1.3h-3V314zm3.1 6.2h-3v-2.9h3c1 0 1.5.7 1.5 1.5-.1.9-.6 1.4-1.5 1.4z" class="st9"/><path id="text_x5F_orange_2_" d="M285.4 299.3H282l-3.3 4.4v-4.4H276V310h2.8v-3.1l.7-.9 2.8 4h3.4l-4.4-5.7 4.1-5zm5.2 8.3c2.7-1.9 3.8-3.2 3.8-4.9 0-2.1-1.8-3.6-4.3-3.6-1.5 0-3.2.5-4.3 1.8l1.5 1.8c.8-.7 1.7-1.2 2.8-1.2.8 0 1.5.4 1.5 1.1 0 1.1-.9 1.8-5.5 5.1v2.1h8.4v-2.4h-3.9z" class="st10"/></g></a>


<a target="_blank" xlink:href="https://www.adobe.com/support/products/enterprise/knowledgecenter/media/c4611_sample_explain.pdf"><g id="K1"><path d="M117 67h71a4 4 0 0 1 4 4v305a4 4 0 0 1-4 4h-71a4 4 0 0 1-4-4V71a4 4 0 0 1 4-4z" class="st7"/><path d="M118 72h69v303h-69V72z" class="st8"/><path d="M118 209h29V72h-29v137zm0 166h29V238h-29v137z" class="st3"/><path id="text_4_" d="M126.4 286.8l.6.6 1.7-1.8v9.4h.9v-10.7h-.8l-2.4 2.5zm8.8.3c-1.3 0-2.2.4-3 1.3l.5.6a3 3 0 0 1 2.4-1.1c1.2 0 2.1.6 2.1 1.8v1.6a3.3 3.3 0 0 0-2.6-1.1c-1.3 0-2.7.9-2.7 2.6 0 1.7 1.4 2.6 2.7 2.6 1.1 0 1.9-.4 2.6-1.1v.9h.8v-5.4c0-2-1.3-2.7-2.8-2.7zm1.9 6.4c-.5.7-1.4 1.1-2.3 1.1-1.3 0-2.1-.8-2.1-1.9 0-1.1.8-1.9 2.1-1.9.9 0 1.8.4 2.3 1.1v1.6zM126.7 145h.9v-10.7h-.8l-2.4 2.5.6.6 1.7-1.8v9.4zm10.5-3.9c0-2.2-1.4-4-3.6-4-1.6 0-2.5.9-3 1.9.3-1.6.9-2.7 3.6-3.1 1.3-.2 2.8-.5 2.8-1.6h-.8c0 .3-.5.6-2.2.8-2.8.4-4.1 1.8-4.1 5.6 0 2.6 1.4 4.4 3.7 4.4 2.2.1 3.6-1.7 3.6-4zm-6.5 0c0-1.7 1-3.3 2.8-3.3 1.8 0 2.8 1.6 2.8 3.3 0 1.7-1 3.3-2.8 3.3-1.8 0-2.8-1.5-2.8-3.3zm28.7 79.7l.6.6 1.7-1.8v9.4h1.3v-10.7h-1.2l-2.4 2.5zm10.7 4.2c.6-.2 1.2-.8 1.2-1.8 0-1.2-.8-2-2.1-2h-4v7.7h4c1.3 0 2.2-.8 2.2-2.1a2 2 0 0 0-1.3-1.8zm-4-3h3c.9 0 1.4.5 1.4 1.3 0 .7-.5 1.3-1.4 1.3h-3V222zm3 6.2h-3v-2.9h3c1 0 1.5.7 1.5 1.5 0 .9-.6 1.4-1.5 1.4z" class="st9"/><g id="text_x5F_orange_3_"><path d="M134.4 218.3H131l-3.3 4.4v-4.4H125V229h2.8v-3.1l.7-.9 2.8 4h3.4l-4.4-5.7 4.1-5zm3.9 0l-3.7 3.7 1.6 1.6 1.8-1.8v7.2h2.8v-10.7h-2.5z" class="st10"/></g></g></a>

<!-- START: Links -->
</svg>